-------------------------------------------------------------------------------
Test set: com.aerserv.stack.TestAerStack
-------------------------------------------------------------------------------
Tests run: 10, Failures: 0, Errors: 0, Skipped: 0, Time elapsed: 0.129 sec - in com.aerserv.stack.TestAerStack
